{
  "cam_transform_button": "mouse_right",
  "cam_transform_mod_pan": "left_shift",
  "cam_transform_mod_zoom": "left_control",

  "cam_view_set_front": "1",
  "cam_view_set_right": "3",
  "cam_view_set_top": "7",

  "edit_selection_mod": "left_shift",
  "edit_action_delete": "x",
  "edit_toggle_snap": "",

  "edit_scale": "",
  "edit_transform": "",
  "edit_rotate": "",

  "edit_manipulator_set_none": "q",
  "edit_manipulator_set_transform": "w",
  "edit_manipulator_set_scale": "e",
  "edit_manipulator_set_rotation": "r"

}